%YAML 1.1
%TAG !u! tag:unity3d.com,2011:
--- !u!114 &11400000
MonoBehaviour:
  m_ObjectHideFlags: 0
  m_CorrespondingSourceObject: {fileID: 0}
  m_PrefabInternal: {fileID: 0}
  m_GameObject: {fileID: 0}
  m_Enabled: 1
  m_EditorHideFlags: 0
  m_Script: {fileID: 11500000, guid: 967efab46eeb64072b5135d770dc145c, type: 3}
  m_Name: StubGame2
  m_EditorClassIdentifier: 
  genreID: Stub2
  smallThumbnailPrefab: {fileID: 1856284512649330, guid: c32cf2ba3310b4026a6987d7840bde4a,
    type: 2}
  thumbnailPrefab: {fileID: 1084400336180034, guid: a8d44b66bfca54115935c6846f483f50,
    type: 2}
  previewPrefab: {fileID: 1310592291397162, guid: 470efd50d70dc4da283de4e0ddaeb0ae,
    type: 2}
